DVS Analysis
…
Tools people use

tools_used <- dat_raw %>% 
  pivot_longer(cols = contains("tools_for_dv_"), names_prefix = "tools_for_dv_", values_to = "tool",values_drop_na = TRUE) %>% 
  pivot_longer(cols = starts_with("dv_roles_"), names_prefix = "dv_roles_", names_to = "role", values_to = "response", values_drop_na = TRUE) %>% 
  select(chron_id ,  response, tool)

Tools used distinctly by respondent:

tools_used %>% 
  distinct(chron_id, tool) %>% 
  count(tool, sort = T)

## # A tibble: 278 x 2
##    tool            n
##    <chr>       <int>
##  1 Excel        1075
##  2 Tableau       854
##  3 PowerPoint    678
##  4 R             560
##  5 Python        527
##  6 Pen & paper   518
##  7 Power BI      460
##  8 ggplot2       434
##  9 Illustrator   421
## 10 D3.js         411
## # ... with 268 more rows
…
